…
##### Result{- .tabset .tabset-fade .tabset-pills}


```r
tdf_df_task2.2
```

```
# A tibble: 30 x 24
   rider_name  rank stage_1 stage_2 stage_3 stage_4 stage_5 stage_6 stage_7
   <chr>      <int>   <dbl>   <dbl>   <dbl>   <dbl>   <dbl>   <dbl>   <dbl>
 1 Bardet, R~     1       0       0       0       0       0       0       0
 2 Bernal, E~     2       0       0       0       0       0       0       0
 3 Wellens, ~     3       0       0       7       0      10      26       0
 4 Caruso, D~     4       0       0       0       0       0       0       0
 5 Nibali, V~     5       0       0       0       0       0       0       0
 6 Yates, Si~     5       0       0       0       0       0       0       0
 7 Quintana,~     7       0       0       1       0       0       0       0
 8 Pinot, Th~     8       0       0       0       0       0       2       0
 9 Lutsenko,~     9       0       0       0       0       0       0       0
10 Kruijswij~    10       0       0       0       0       0       0       0
# ... with 20 more rows, and 15 more variables: stage_8 <dbl>,
#   stage_9 <dbl>, stage_10 <dbl>, stage_11 <dbl>, stage_12 <dbl>,
#   stage_13 <dbl>, stage_14 <dbl>, stage_15 <dbl>, stage_16 <dbl>,
#   stage_17 <dbl>, stage_18 <dbl>, stage_19 <dbl>, stage_20 <dbl>,
#   stage_21 <dbl>, total_climb_pts <dbl>
```
…
